Strategies for simulating missingness
…
With design-based simulation, a smaller set is usually sampled from a sufficiently large register or population. This type of simulation design is often deployed when a real-life data source is available, such as in e.g. medical or official statistics.

Generating a sufficiently large population

We continue with the previously used multivariate normal model, but now sample a true set of size 1,000,000 cases. The easiest and most computationally convenient approach to realizing this, would be to bind the 1000 sets from simdata together into a long format:

truth <- simdata %>% 
  do.call("rbind", .)

The resulting object truth is a 1000000 by 3 tibble.

truth 

# A tibble: 1,000,000 × 3
       x     z     y
   <dbl> <dbl> <dbl>
 1  7.39  2.58  51.6
 2  9.47  3.65  68.0
 3  8.77  4.64  66.0
 4  7.95  2.00  54.9
 5  7.20  2.33  50.3
 6  9.27  3.80  66.4
 7  8.41  3.25  58.4
 8  8.16  4.44  61.7
 9  7.72  1.37  52.5
10  8.47  2.83  58.7
# … with 999,990 more rows
…
